…
Now you get to explore this exciting dataset! Can’t think of where to
start? Try your hand at these questions:

-   Find out which country has the biggest clients in terms of total
    orders or most money paid.

``` r
options(dplyr.summarise.inform = FALSE)
data %>%
  group_by(Country) %>% #to get groups of country
  summarize(Total_Money_Paid_By_Country = sum(Quantity*UnitPrice)) %>% #to get total amount of money per country
  arrange(desc(Total_Money_Paid_By_Country)) #sort by most money to least money
```

    ## # A tibble: 38 x 2
    ##    Country        Total_Money_Paid_By_Country
    ##    <chr>                                <dbl>
    ##  1 United Kingdom                    8187806.
    ##  2 Netherlands                        284662.
    ##  3 EIRE                               263277.
    ##  4 Germany                            221698.
    ##  5 France                             197404.
    ##  6 Australia                          137077.
    ##  7 Switzerland                         56385.
    ##  8 Spain                               54775.
    ##  9 Belgium                             40911.
    ## 10 Sweden                              36596.
    ## # ... with 28 more rows

``` r
data %>%
  group_by(Country, InvoiceNo) %>% #to get groups of country, and group by InvoiceNo
  summarize(count_of_invoice = n()) %>% #to get county of individual invoices by country
  summarize(Count_of_Orders_By_Country = n()) %>% #total the counts of individual invoices for the country
  arrange(desc(Count_of_Orders_By_Country)) #sort most number of invoices to least number
```

    ## # A tibble: 38 x 2
    ##    Country        Count_of_Orders_By_Country
    ##    <chr>                               <int>
    ##  1 United Kingdom                      23494
    ##  2 Germany                               603
    ##  3 France                                461
    ##  4 EIRE                                  360
    ##  5 Belgium                               119
    ##  6 Spain                                 105
    ##  7 Netherlands                           101
    ##  8 Switzerland                            74
    ##  9 Portugal                               71
    ## 10 Australia                              69
    ## # ... with 28 more rows
…
``` r
data %>% #load data
  mutate(cust_total = UnitPrice*Quantity) %>% #create a sum of goods per item
  select(Quantity, UnitPrice, CustomerID, cust_total) %>% #select quantity, price, customer ID, and total
  group_by(CustomerID) %>% #group by customer
  summarize(cust_total = sum(cust_total)) %>% #sum the customer's purchase
  na.omit() %>% #no more NA values
  arrange(desc(cust_total)) %>% #sort
  top_frac(.2) #get top 20% of spenders 
```

    ## # A tibble: 874 x 2
    ##    CustomerID cust_total
    ##         <dbl>      <dbl>
    ##  1      14646    279489.
    ##  2      18102    256438.
    ##  3      17450    187482.
    ##  4      14911    132573.
    ##  5      12415    123725.
    ##  6      14156    113384.
    ##  7      17511     88125.
    ##  8      16684     65892.
    ##  9      13694     62653.
    ## 10      15311     59419.
    ## # ... with 864 more rows
…
